{
    "name": "first-network-org1",
    "version": "1.0.0",
    "client": {
        "organization": "Org1",
        "connection": {
            "timeout": {
                "peer": {
                    "endorser": "300"
                }
            }
        }
    },
    "organizations": {
        "Org1": {
            "mspid": "Org1MSP",
            "peers": [
                "peer0.org1.example.com"
            ],
            "certificateAuthorities": [
                "ca.org1.example.com"
            ]
        }
    },
    "peers": {
        "peer0.org1.example.com": {
            "url": "grpcs://localhost:7051",
            "tlsCACerts": {
                "pem": "-----BEGIN CERTIFICATE-----\nMIICFjCCAb2gAwIBAgIUUx7yQ2q8Y++MsI9T4TZI2yTBU38wCgYIKoZIzj0EAwIw\naDELMAkGA1UEBhMCVVMxFzAVBgNVBAgTDk5vcnRoIENhcm9saW5hMRQwEgYDVQQK\nEwtIeXBlcmxlZGdlcjEPMA0GA1UECxMGRmFicmljMRkwFwYDVQQDExBmYWJyaWMt\nY2Etc2VydmVyMB4XDTIzMDYxNDExMjQwMFoXDTM4MDYxMDExMjQwMFowaDELMAkG\nA1UEBhMCVVMxFzAVBgNVBAgTDk5vcnRoIENhcm9saW5hMRQwEgYDVQQKEwtIeXBl\ncmxlZGdlcjEPMA0GA1UECxMGRmFicmljMRkwFwYDVQQDExBmYWJyaWMtY2Etc2Vy\ndmVyMFkwEwYHKoZIzj0CAQYIKoZIzj0DAQcDQgAEdS0QWo2XscS89n7RqdV2o9+M\nNBA2AYCWXBqDOG+2mnyHtlSm2Qx/y9o2HtxL6YF29PqIduTDYhE6WIpF2svL7KNF\nMEMwDgYDVR0PAQH/BAQDAgEGMBIGA1UdEwEB/wQIMAYBAf8CAQEwHQYDVR0OBBYE\nFD+Y/SiCLRNohkKUCzBW5jmDy2jjMAoGCCqGSM49BAMCA0cAMEQCIB7x+xGF2R6Y\nRRfrFVOumAT0xF9khdjy5P48vmDzjmklAiBvA+jFY8M2Brqdk2+yIRxUzf5T4gcZ\n3EXa8ZAaSgfmfw==\n-----END CERTIFICATE-----\n"
            },
            "grpcOptions": {
                "ssl-target-name-override": "peer0.org1.example.com",
                "hostnameOverride": "peer0.org1.example.com"
            }
        }

	
    },
    "certificateAuthorities": {
        "ca.org1.example.com": {
            "url": "https://localhost:7054",
            "caName": "ca.org1.example.com",
            "tlsCACerts": {
                "pem": "-----BEGIN CERTIFICATE-----\nMIICFjCCAb2gAwIBAgIUUx7yQ2q8Y++MsI9T4TZI2yTBU38wCgYIKoZIzj0EAwIw\naDELMAkGA1UEBhMCVVMxFzAVBgNVBAgTDk5vcnRoIENhcm9saW5hMRQwEgYDVQQK\nEwtIeXBlcmxlZGdlcjEPMA0GA1UECxMGRmFicmljMRkwFwYDVQQDExBmYWJyaWMt\nY2Etc2VydmVyMB4XDTIzMDYxNDExMjQwMFoXDTM4MDYxMDExMjQwMFowaDELMAkG\nA1UEBhMCVVMxFzAVBgNVBAgTDk5vcnRoIENhcm9saW5hMRQwEgYDVQQKEwtIeXBl\ncmxlZGdlcjEPMA0GA1UECxMGRmFicmljMRkwFwYDVQQDExBmYWJyaWMtY2Etc2Vy\ndmVyMFkwEwYHKoZIzj0CAQYIKoZIzj0DAQcDQgAEdS0QWo2XscS89n7RqdV2o9+M\nNBA2AYCWXBqDOG+2mnyHtlSm2Qx/y9o2HtxL6YF29PqIduTDYhE6WIpF2svL7KNF\nMEMwDgYDVR0PAQH/BAQDAgEGMBIGA1UdEwEB/wQIMAYBAf8CAQEwHQYDVR0OBBYE\nFD+Y/SiCLRNohkKUCzBW5jmDy2jjMAoGCCqGSM49BAMCA0cAMEQCIB7x+xGF2R6Y\nRRfrFVOumAT0xF9khdjy5P48vmDzjmklAiBvA+jFY8M2Brqdk2+yIRxUzf5T4gcZ\n3EXa8ZAaSgfmfw==\n-----END CERTIFICATE-----\n"
            },
            "httpOptions": {
                "verify": false
            }
        }
    }
}
