{
    "name": "fot-network",
    "version": "1.0.0",
    "client": {
        "organization": "Org1",
        "connection": {
            "timeout": {
                "peer": {
                    "endorser": "300"
                }
            }
        }
    },
    "organizations": {
        "Org1": {
            "mspid": "Org1MSP",
            "peers": [
                "peer0.org1.example.com",
                "peer1.org1.example.com"
            ],
            "certificateAuthorities": [
                "ca.org1.example.com"
            ]
        }
    },
    "peers": {
        "peer0.org1.example.com:7051": {
            "url": "grpcs://peer0.org1.example.com:7051",
            "tlsCACerts": {
                "pem": "-----BEGIN CERTIFICATE-----\nMIICFzCCAb2gAwIBAgIUK8BrfAwx4VzEwmsBRqhzzXMQMFwwCgYIKoZIzj0EAwIw\naDELMAkGA1UEBhMCVVMxFzAVBgNVBAgTDk5vcnRoIENhcm9saW5hMRQwEgYDVQQK\nEwtIeXBlcmxlZGdlcjEPMA0GA1UECxMGRmFicmljMRkwFwYDVQQDExBmYWJyaWMt\nY2Etc2VydmVyMB4XDTIzMDQxOTEwNTIwMFoXDTM4MDQxNTEwNTIwMFowaDELMAkG\nA1UEBhMCVVMxFzAVBgNVBAgTDk5vcnRoIENhcm9saW5hMRQwEgYDVQQKEwtIeXBl\ncmxlZGdlcjEPMA0GA1UECxMGRmFicmljMRkwFwYDVQQDExBmYWJyaWMtY2Etc2Vy\ndmVyMFkwEwYHKoZIzj0CAQYIKoZIzj0DAQcDQgAEYTrp/J3jGM2y0het0JcK3PBi\n4dXu+Pgd5fo6suZ0iQq4rp9regK1RiB8wVJuyWSGmmd8dZCS92LXkqAQwVeS+6NF\nMEMwDgYDVR0PAQH/BAQDAgEGMBIGA1UdEwEB/wQIMAYBAf8CAQEwHQYDVR0OBBYE\nFG80U6MIjuUD0Xbl5pWZhxNK+7XkMAoGCCqGSM49BAMCA0gAMEUCIQCw3cjU8F2J\nP/nLknIGhLP0iZjfrtHHe2K70vg6niFcXAIgN9ERXymprU/ntkYXOPRioxsmKemj\nqSCyChRkky0/S/o=\n-----END CERTIFICATE-----\n"
            },
            "grpcOptions": {
                "ssl-target-name-override": "peer0.org1.example.com",
                "hostnameOverride": "peer0.org1.example.com"
            }
        },
        "peer1.org1.example.com:8051": {
            "url": "grpcs://peer1.org1.example.com:8051",
            "tlsCACerts": {
                "pem": "-----BEGIN CERTIFICATE-----\nMIICFzCCAb2gAwIBAgIUK8BrfAwx4VzEwmsBRqhzzXMQMFwwCgYIKoZIzj0EAwIw\naDELMAkGA1UEBhMCVVMxFzAVBgNVBAgTDk5vcnRoIENhcm9saW5hMRQwEgYDVQQK\nEwtIeXBlcmxlZGdlcjEPMA0GA1UECxMGRmFicmljMRkwFwYDVQQDExBmYWJyaWMt\nY2Etc2VydmVyMB4XDTIzMDQxOTEwNTIwMFoXDTM4MDQxNTEwNTIwMFowaDELMAkG\nA1UEBhMCVVMxFzAVBgNVBAgTDk5vcnRoIENhcm9saW5hMRQwEgYDVQQKEwtIeXBl\ncmxlZGdlcjEPMA0GA1UECxMGRmFicmljMRkwFwYDVQQDExBmYWJyaWMtY2Etc2Vy\ndmVyMFkwEwYHKoZIzj0CAQYIKoZIzj0DAQcDQgAEYTrp/J3jGM2y0het0JcK3PBi\n4dXu+Pgd5fo6suZ0iQq4rp9regK1RiB8wVJuyWSGmmd8dZCS92LXkqAQwVeS+6NF\nMEMwDgYDVR0PAQH/BAQDAgEGMBIGA1UdEwEB/wQIMAYBAf8CAQEwHQYDVR0OBBYE\nFG80U6MIjuUD0Xbl5pWZhxNK+7XkMAoGCCqGSM49BAMCA0gAMEUCIQCw3cjU8F2J\nP/nLknIGhLP0iZjfrtHHe2K70vg6niFcXAIgN9ERXymprU/ntkYXOPRioxsmKemj\nqSCyChRkky0/S/o=\n-----END CERTIFICATE-----\n"
            },
            "grpcOptions": {
                "ssl-target-name-override": "peer1.org1.example.com",
                "hostnameOverride": "peer1.org1.example.com"
            }
        }
    },
    "certificateAuthorities": {
        "ca.org1.example.com:7054": {
            "url": "https://ca.org1.example.com:7054",
            "caName": "ca.org1.example.com",
            "tlsCACerts": {
                "pem": "-----BEGIN CERTIFICATE-----\nMIICFzCCAb2gAwIBAgIUK8BrfAwx4VzEwmsBRqhzzXMQMFwwCgYIKoZIzj0EAwIw\naDELMAkGA1UEBhMCVVMxFzAVBgNVBAgTDk5vcnRoIENhcm9saW5hMRQwEgYDVQQK\nEwtIeXBlcmxlZGdlcjEPMA0GA1UECxMGRmFicmljMRkwFwYDVQQDExBmYWJyaWMt\nY2Etc2VydmVyMB4XDTIzMDQxOTEwNTIwMFoXDTM4MDQxNTEwNTIwMFowaDELMAkG\nA1UEBhMCVVMxFzAVBgNVBAgTDk5vcnRoIENhcm9saW5hMRQwEgYDVQQKEwtIeXBl\ncmxlZGdlcjEPMA0GA1UECxMGRmFicmljMRkwFwYDVQQDExBmYWJyaWMtY2Etc2Vy\ndmVyMFkwEwYHKoZIzj0CAQYIKoZIzj0DAQcDQgAEYTrp/J3jGM2y0het0JcK3PBi\n4dXu+Pgd5fo6suZ0iQq4rp9regK1RiB8wVJuyWSGmmd8dZCS92LXkqAQwVeS+6NF\nMEMwDgYDVR0PAQH/BAQDAgEGMBIGA1UdEwEB/wQIMAYBAf8CAQEwHQYDVR0OBBYE\nFG80U6MIjuUD0Xbl5pWZhxNK+7XkMAoGCCqGSM49BAMCA0gAMEUCIQCw3cjU8F2J\nP/nLknIGhLP0iZjfrtHHe2K70vg6niFcXAIgN9ERXymprU/ntkYXOPRioxsmKemj\nqSCyChRkky0/S/o=\n-----END CERTIFICATE-----\n"
            },
            "httpOptions": {
                "verify": false
            }
        }
    }
}
