{
    "name": "first-network-org1",
    "version": "1.0.0",
    "client": {
        "organization": "Org1",
        "connection": {
            "timeout": {
                "peer": {
                    "endorser": "300"
                }
            }
        }
    },
    "organizations": {
        "Org1": {
            "mspid": "Org1MSP",
            "peers": [
                "peer0.org1.example.com"
            ],
            "certificateAuthorities": [
                "ca.org1.example.com"
            ]
        }
    },
    "peers": {
        "peer0.org1.example.com": {
            "url": "grpcs://localhost:7051",
            "tlsCACerts": {
                "pem": "-----BEGIN CERTIFICATE-----\nMIICFzCCAb2gAwIBAgIULOmUa6j7PuCle42Wiv8xvnXO2b8wCgYIKoZIzj0EAwIw\naDELMAkGA1UEBhMCVVMxFzAVBgNVBAgTDk5vcnRoIENhcm9saW5hMRQwEgYDVQQK\nEwtIeXBlcmxlZGdlcjEPMA0GA1UECxMGRmFicmljMRkwFwYDVQQDExBmYWJyaWMt\nY2Etc2VydmVyMB4XDTIzMDUzMDEzMzcwMFoXDTM4MDUyNjEzMzcwMFowaDELMAkG\nA1UEBhMCVVMxFzAVBgNVBAgTDk5vcnRoIENhcm9saW5hMRQwEgYDVQQKEwtIeXBl\ncmxlZGdlcjEPMA0GA1UECxMGRmFicmljMRkwFwYDVQQDExBmYWJyaWMtY2Etc2Vy\ndmVyMFkwEwYHKoZIzj0CAQYIKoZIzj0DAQcDQgAE1nuEmDbXctczOXD161cbZ9qR\n5CqqXxX0Jx7oq3naFOUpUAotsNOiY9D6Y9IpkI9iEme3pBJKeeWWSTqexFmdpKNF\nMEMwDgYDVR0PAQH/BAQDAgEGMBIGA1UdEwEB/wQIMAYBAf8CAQEwHQYDVR0OBBYE\nFAyLAIwHeDjqA/mdpbpzoH9Eo98xMAoGCCqGSM49BAMCA0gAMEUCIQDgzulHfdbn\nNZx7cPG+pw9KJ1RNTL7ExaH+TfsAIyp7zgIgBoaypjNkJbzeCEXmkGc2UTJnzelG\nIY0E5B4e3HHBdzs=\n-----END CERTIFICATE-----\n"
            },
            "grpcOptions": {
                "ssl-target-name-override": "peer0.org1.example.com",
                "hostnameOverride": "peer0.org1.example.com"
            }
        }

	
    },
    "certificateAuthorities": {
        "ca.org1.example.com": {
            "url": "https://localhost:7054",
            "caName": "ca.org1.example.com",
            "tlsCACerts": {
                "pem": "-----BEGIN CERTIFICATE-----\nMIICFzCCAb2gAwIBAgIULOmUa6j7PuCle42Wiv8xvnXO2b8wCgYIKoZIzj0EAwIw\naDELMAkGA1UEBhMCVVMxFzAVBgNVBAgTDk5vcnRoIENhcm9saW5hMRQwEgYDVQQK\nEwtIeXBlcmxlZGdlcjEPMA0GA1UECxMGRmFicmljMRkwFwYDVQQDExBmYWJyaWMt\nY2Etc2VydmVyMB4XDTIzMDUzMDEzMzcwMFoXDTM4MDUyNjEzMzcwMFowaDELMAkG\nA1UEBhMCVVMxFzAVBgNVBAgTDk5vcnRoIENhcm9saW5hMRQwEgYDVQQKEwtIeXBl\ncmxlZGdlcjEPMA0GA1UECxMGRmFicmljMRkwFwYDVQQDExBmYWJyaWMtY2Etc2Vy\ndmVyMFkwEwYHKoZIzj0CAQYIKoZIzj0DAQcDQgAE1nuEmDbXctczOXD161cbZ9qR\n5CqqXxX0Jx7oq3naFOUpUAotsNOiY9D6Y9IpkI9iEme3pBJKeeWWSTqexFmdpKNF\nMEMwDgYDVR0PAQH/BAQDAgEGMBIGA1UdEwEB/wQIMAYBAf8CAQEwHQYDVR0OBBYE\nFAyLAIwHeDjqA/mdpbpzoH9Eo98xMAoGCCqGSM49BAMCA0gAMEUCIQDgzulHfdbn\nNZx7cPG+pw9KJ1RNTL7ExaH+TfsAIyp7zgIgBoaypjNkJbzeCEXmkGc2UTJnzelG\nIY0E5B4e3HHBdzs=\n-----END CERTIFICATE-----\n"
            },
            "httpOptions": {
                "verify": false
            }
        }
    }
}
