[
     {
          "name": "collectionSalaryData",
          "policy": "OR('Org1MSP.member', 'Org2MSP.member')",
          "requiredPeerCount": 0,
          "maxPeerCount": 0,
          "blockToLive": 0,
          "memberOnlyRead": true,
          "memberOnlyWrite": true
     },
     {
          "name": "collectionProjectData",
          "policy": "OR('Org2MSP.member')",
          "requiredPeerCount": 0,
          "maxPeerCount": 0,
          "blockToLive": 0,
          "memberOnlyRead": true,
          "memberOnlyWrite": true,
          "endorsementPolicy": {
               "signaturePolicy": "OR('Org2MSP.member')"
          }
     }
]